The Trouble with Tibbles
…
# You're a tribblemaker

<!-- Tibbles can be formed in three ways: -->
--

###  1) _Creation_

--

.pull-left[

```r
tibble(a = 1:26,
              b = letters)  
#> # A tibble: 26 x 2
#>       a     b
#>   <int> <chr>
#> 1     1     a
#> 2     2     b
#> 3     3     c
#> 4     4     d
#> # ... with 22 more rows
```
]
--
.pull-right[

```r
data_frame(a = 1:26,
              b = letters)  
#> # A tibble: 26 x 2
#>       a     b
#>   <int> <chr>
#> 1     1     a
#> 2     2     b
#> 3     3     c
#> 4     4     d
#> # ... with 22 more rows
```
…
### 2) _Coercion_

--

```r
df = data.frame(a = 1:26, b = letters)
```

--

.pull-left[

```r
as_tibble(df)
#> # A tibble: 26 x 2
#>       a      b
#>   <int> <fctr>
#> 1     1      a
#> 2     2      b
#> 3     3      c
#> 4     4      d
#> # ... with 22 more rows
```
]

--

.pull-right[

```r
as_data_frame(df)
#> # A tibble: 26 x 2
#>       a      b
#>   <int> <fctr>
#> 1     1      a
#> 2     2      b
#> 3     3      c
#> 4     4      d
#> # ... with 22 more rows
```
…
# tibbles vs. data frames

--

A refined print process means a tibble will only show the first 10 rows and as many columns can fit on your screen:
 
--
 
.pull-left[

```r
 tibble(a = 1:26,
               b = letters)
#> # A tibble: 26 x 2
#>       a     b
#>   <int> <chr>
#> 1     1     a
#> 2     2     b
#> 3     3     c
#> 4     4     d
#> 5     5     e
#> # ... with 21 more rows
```
…
--

.pull-right[

```r
tibble(1:4)
#> # A tibble: 4 x 1
#>   `1:4`
#>   <int>
#> 1     1
#> # ... with 3 more rows
```
…
